{
  "project_info": {
    "project_number": "610622564204",
    "firebase_url": "https://lemidoo-push.firebaseio.com",
    "project_id": "lemidoo-push",
    "storage_bucket": "lemidoo-push.appspot.com"
  },
  "client": [
    {
      "client_info": {
        "mobilesdk_app_id": "1:610622564204:android:78872122cba575f0",
        "android_client_info": {
          "package_name": "com.meesap.lemidoo"
        }
      },
      "oauth_client": [
        {
          "client_id": "610622564204-fbv98tki0fr9rv5u782llkksju9thvuu.apps.googleusercontent.com",
          "client_type": 3
        }
      ],
      "api_key": [
        {
          "current_key": "AIzaSyCmhdbobjs_ZFz6xANmeZpGkvuZ08mIgQw"
        }
      ],
      "services": {
        "analytics_service": {
          "status": 1
        },
        "appinvite_service": {
          "status": 1,
          "other_platform_oauth_client": []
        },
        "ads_service": {
          "status": 2
        }
      }
    }
  ],
  "configuration_version": "1"
}